GAM modelling
…
## Note: Using an external vector in selections is ambiguous.
## i Use `all_of(keep_features)` instead of `keep_features` to silence this message.
## i See <https://tidyselect.r-lib.org/reference/faq-external-vector.html>.
## This message is displayed once per session.

crime_test <- crime_test %>% select(keep_features) %>% na.omit(crime_dat) %>% 
  mutate(fbi_code = as.factor(fbi_code)) %>% mutate(community_area = as.factor(community_area)) %>%
  mutate(day = as.numeric(day))

crime_train

## # A tibble: 806,423 x 7
##    month  year   day date       community_area fbi_code  yday
##    <fct> <int> <dbl> <date>     <fct>          <fct>    <dbl>
##  1 1      2016     2 2016-01-02 12             26           2
##  2 1      2016    11 2016-01-11 1              06          11
##  3 1      2016    11 2016-01-11 38             07          11
##  4 1      2016    13 2016-01-13 2              08B         13
##  5 1      2016     6 2016-01-06 48             26           6
##  6 1      2016    10 2016-01-10 48             26          10
##  7 1      2016    15 2016-01-15 19             08B         15
##  8 1      2016    18 2016-01-18 74             03          18
##  9 1      2016    13 2016-01-13 19             08B         13
## 10 1      2016    21 2016-01-21 19             08B         21
## # ... with 806,413 more rows
…
