Interpolating the number or crimes
…
A bandwidth of 5 seems reasonable, gave the lowest cross-validation error.

Plotting the prediction function

As this is single dimensional we can plot the prediction function:

y_hat = kr_best$predict(X)

# Plot output
df$y_hat <- y_hat
df

## # A tibble: 1,041 x 6
## # Groups:   week, week_start [1,041]
##     week week_start  year n_crimes cumulative_week y_hat
##    <dbl> <date>     <dbl>    <int>           <int> <dbl>
##  1     1 2001-01-01  2001     8941               1 8711.
##  2     2 2001-01-08  2001     8588               2 8682.
##  3     3 2001-01-15  2001     8704               3 8664.
##  4     4 2001-01-22  2001     8300               4 8641.
##  5     5 2001-01-29  2001     8473               5 8664.
##  6     6 2001-02-05  2001     8418               6 8712.
##  7     7 2001-02-12  2001     8368               7 8760.
##  8     8 2001-02-19  2001     8417               8 8808.
##  9     9 2001-02-26  2001     9151               9 8907.
## 10    10 2001-03-05  2001     9035              10 8975.
## #  with 1,031 more rows
…
